// Jest Snapshot v1, https://goo.gl/fbAQLP

exports[`valid toString output 1`] = `"[creepId <a href=\\"#!/room/W1S1\\" onClick=\\"angular.element('body').injector().get('RoomViewPendingSelector').set('creepId');\\">[W1S1 1,2]</a>]"`;
