// Jest Snapshot v1, https://goo.gl/fbAQLP

exports[`getCoreRooms 1`] = `
Object {
  "W15S34": Room {
    "controller": StructureController {
      "hits": 0,
      "hitsMax": 0,
      "id": "controllerId",
      "level": 1,
      "my": true,
      "owner": Object {
        "username": "Atavus",
      },
      "pos": RoomPosition {
        "roomName": "W15S34",
        "x": 24,
        "y": 24,
      },
      "progress": 0,
      "progressTotal": 0,
      "reservation": Object {},
      "room": [Circular],
      "safeMode": undefined,
      "safeModeAvailable": 0,
      "safeModeCooldown": 0,
      "structureType": "controller",
      "ticksToDowngrade": 0,
      "upgradeBlocked": 0,
    },
    "energyAvailable": 1000,
    "energyCapacityAvailable": 2000,
    "memory": Object {},
    "name": "W15S34",
    "storage": null,
    "terminal": null,
    "visual": null,
  },
}
`;
