// Jest Snapshot v1, https://goo.gl/fbAQLP

exports[`schedules creep spawn 1`] = `
Object {
  "scheduledSpawn": Object {
    "1,2,W15S34-farm-0": Object {
      "body": Array [
        "move",
        "move",
        "move",
        "work",
        "work",
        "work",
        "work",
        "work",
      ],
      "energy": 650,
      "priority": 50,
      "roomName": "W15S34",
      "time": 0,
    },
  },
}
`;

exports[`schedules small creep spawn when insufficient room energy 1`] = `
Object {
  "scheduledSpawn": Object {
    "1,2,W15S34-farm-0": Object {
      "body": Array [
        "move",
        "move",
        "work",
        "work",
        "work",
        "work",
      ],
      "energy": 500,
      "priority": 50,
      "roomName": "W15S34",
      "time": 0,
    },
  },
}
`;
